[
  {
    "1": {"name": "id", "type": "string"},
    "2": {"name": "pieces", "type": "integer"},
    "3": {"name": "prix", "type": "float"},
    "4": {"name": "surface", "type": "integer"},
    "5": {"name": "date", "type": "integer"},
    "6": {"name": "thumbnail", "type": "string"},
    "7": {"name": "type", "type": "integer"},
    "8": {"name": "zip", "type": "string"},
    "9": {"name": "energie", "type": "integer"},
    "10": {"name": "chambres", "type": "integer"},
    "11": {"name": "rue", "type": "string"},
    "12": {"name": "description", "type": "string"}
  }
]
